﻿1,Licenciatura en Enfermería y Obstetricia,LEO01 PROPEDEUTICA DE ENFERMERIA I,3,101,1°,Otoño 2022,MTRO JOSÉ MANUEL GARCÍA PAÉZ,10 a 10:50,,10 a 10:50,,10 a 10:50 Lab,,3,2201010001,"'2201010001','2201010001','LEO-101','LEO-01',1,'2022A'),",1
2,Licenciatura en Enfermería y Obstetricia,LEO01 PROPEDEUTICA DE ENFERMERIA I,3,102,1°,Otoño 2022,MTRA ALMA ROSA ALCAIDE LÓPEZ,11 a 11:50,,11 a 11:50,,11 a 11:50 Lab,,3,2201010002,"'2201010002','2201010002','LEO-102','LEO-01',100089,'2022A'),",100089
3,Licenciatura en Enfermería y Obstetricia,LEO01 PROPEDEUTICA DE ENFERMERIA I,3,103,1°,Otoño 2022,ALMA REMIGIO ESTUPINIA,12 a 12:50 Lab,,12 a 12:50,,12 a 12:50,,3,2201010003,"'2201010003','2201010003','LEO-103','LEO-01',1,'2022A'),",1
4,Licenciatura en Enfermería y Obstetricia,LEO01 PROPEDEUTICA DE ENFERMERIA I,3,104,1°,Otoño 2022,MTRA MARIA LAURA LUGO LEON,15 a 15:50,,15 a 15:50,,15 a 15:50 Lab,,3,2201010004,"'2201010004','2201010004','LEO-104','LEO-01',100091,'2022A'),",100091
5,Licenciatura en Enfermería y Obstetricia,LEO01 PROPEDEUTICA DE ENFERMERIA I,3,105,1°,Otoño 2022,ALMA REMIGIO ESTUPINIA,16 a 16:50,,16 a 16:50 Lab,,16 a 16:50,,3,2201010005,"'2201010005','2201010005','LEO-105','LEO-01',1,'2022A'),",1
6,Licenciatura en Enfermería y Obstetricia,LEO02 ANATOMIA Y FISIOLOGIA HUMANA I,4,101,1°,Otoño 2022,DRA ESTEFANIA MARTIN ZAYAGO,11 a 11:50,,11 a 11:50 Lab,,11 a 11:50,11 a 11:50,4,2201010006,"'2201010006','2201010006','LEO-101','LEO-02',100050,'2022A'),",100050
7,Licenciatura en Enfermería y Obstetricia,LEO02 ANATOMIA Y FISIOLOGIA HUMANA I,4,102,1°,Otoño 2022,DRA ESTEFANIA MARTIN ZAYAGO,10 a 10:50,,10 a 10:50,,10 a 10:50 Lab,10 a 10:50,4,2201010007,"'2201010007','2201010007','LEO-102','LEO-02',100050,'2022A'),",100050
8,Licenciatura en Enfermería y Obstetricia,LEO02 ANATOMIA Y FISIOLOGIA HUMANA I,4,103,1°,Otoño 2022,DRA ESTEFANIA MARTIN ZAYAGO,13 a 13:50 Lab,,13 a 13:50,,13 a 13:50,12 a 12:50,4,2201010008,"'2201010008','2201010008','LEO-103','LEO-02',100050,'2022A'),",100050
9,Licenciatura en Enfermería y Obstetricia,LEO02 ANATOMIA Y FISIOLOGIA HUMANA I,4,104,1°,Otoño 2022,DR. VICTOR HERNANDEZ HERNANDEZ,14 a 14:50,14 a 14:50,14 a 14:50,14 a 14:50 Lab,,,4,2201010009,"'2201010009','2201010009','LEO-104','LEO-02',1,'2022A'),",1
10,Licenciatura en Enfermería y Obstetricia,LEO02 ANATOMIA Y FISIOLOGIA HUMANA I,4,105,1°,Otoño 2022,DRA ESTEFANIA MARTIN ZAYAGO,15 a 15:50,15 a 15:50,15 a 15:50 Lab,15 a 15:50,,,4,2201010010,"'2201010010','2201010010','LEO-105','LEO-02',100050,'2022A'),",100050
11,Licenciatura en Enfermería y Obstetricia,LEO03 SOCIEDAD Y ATENCION PRIMARIA A LA SALUD,2,101,1°,Otoño 2022,MTRA ALMA ROSA ALCAIDE LÓPEZ,,,,,,9 a 9:50,2,2201010011,"'2201010011','2201010011','LEO-101','LEO-03',100089,'2022A'),",100089
12,Licenciatura en Enfermería y Obstetricia,LEO03 SOCIEDAD Y ATENCION PRIMARIA A LA SALUD,2,102,1°,Otoño 2022,MTRA MARIA LAURA LUGO LEON,,,,,,7 a 8:50,2,2201010012,"'2201010012','2201010012','LEO-102','LEO-03',100091,'2022A'),",100091
13,Licenciatura en Enfermería y Obstetricia,LEO03 SOCIEDAD Y ATENCION PRIMARIA A LA SALUD,2,103,1°,Otoño 2022,MTRO JOSE MANUEL GARCIA PAEZ,,10 a 10:50,,10 a 10:50,,,2,2201010013,"'2201010013','2201010013','LEO-103','LEO-03',1,'2022A'),",1
14,Licenciatura en Enfermería y Obstetricia,LEO03 SOCIEDAD Y ATENCION PRIMARIA A LA SALUD,2,104,1°,Otoño 2022,MTRA ALMA ROSA ALCAIDE LÓPEZ,,15 a 15:50,,15 a 15:50,,,2,2201010014,"'2201010014','2201010014','LEO-104','LEO-03',100089,'2022A'),",100089
15,Licenciatura en Enfermería y Obstetricia,LEO03 SOCIEDAD Y ATENCION PRIMARIA A LA SALUD,2,105,1°,Otoño 2022,MIGUEL ANGEL LOZADA LOPEZ,,16 a 16:50,,16 a 16:50,,,2,2201010015,"'2201010015','2201010015','LEO-105','LEO-03',200087,'2022A'),",200087
16,Licenciatura en Enfermería y Obstetricia,"LEO04 TEORIA, FILOSOFIA Y PROCESO ENFERMERO",3,101,1°,Otoño 2022,MTRA MARIA LAURA LUGO LEON,12 a 12:50 ,,12 a 12:50 ,,12 a 12:50 ,,3,2201010016,"'2201010016','2201010016','LEO-101','LEO-04',100091,'2022A'),",100091
17,Licenciatura en Enfermería y Obstetricia,"LEO04 TEORIA, FILOSOFIA Y PROCESO ENFERMERO",3,102,1°,Otoño 2022,MTRO JOSE MANUEL GARCIA PAEZ,13 a 13:50,,13 a 13:50,,13 a 13:50,,3,2201010017,"'2201010017','2201010017','LEO-102','LEO-04',1,'2022A'),",1
18,Licenciatura en Enfermería y Obstetricia,"LEO04 TEORIA, FILOSOFIA Y PROCESO ENFERMERO",3,103,1°,Otoño 2022,MTRA ALMA ROSA ALCAIDE LÓPEZ,10 a 10:50,,10 a 10:50,,10 a 10:50,,3,2201010018,"'2201010018','2201010018','LEO-103','LEO-04',100089,'2022A'),",100089
19,Licenciatura en Enfermería y Obstetricia,"LEO04 TEORIA, FILOSOFIA Y PROCESO ENFERMERO",3,104,1°,Otoño 2022,NATALIA MONTES DE OCA CHAVEZ,17 a 17:50,,17 a 17:50,,17 a 17:50,,3,2201010019,"'2201010019','2201010019','LEO-104','LEO-04',1,'2022A'),",1
20,Licenciatura en Enfermería y Obstetricia,"LEO04 TEORIA, FILOSOFIA Y PROCESO ENFERMERO",3,105,1°,Otoño 2022,NATALIA MONTES DE OCA CHAVEZ,18 a 18:50,,18 a 18:50,,18 a 18:50,,3,2201010020,"'2201010020','2201010020','LEO-105','LEO-04',1,'2022A'),",1
21,Licenciatura en Enfermería y Obstetricia,LEO05 TECNOLOGIAS DE INFORMACION PARA EL CUIDADO,2,101,1°,Otoño 2022,JORGE ARMANDO OSORIO SANDOVAL ,,,,,,13 a 14:50,2,2201010021,"'2201010021','2201010021','LEO-101','LEO-05',100015,'2022A'),",100015
22,Licenciatura en Enfermería y Obstetricia,LEO05 TECNOLOGIAS DE INFORMACION PARA EL CUIDADO,2,102,1°,Otoño 2022,JORGE ARMANDO OSORIO SANDOVAL ,,,,,,11 a 12:50,2,2201010022,"'2201010022','2201010022','LEO-102','LEO-05',100015,'2022A'),",100015
23,Licenciatura en Enfermería y Obstetricia,LEO05 TECNOLOGIAS DE INFORMACION PARA EL CUIDADO,2,103,1°,Otoño 2022,MTRA MARIA LAURA LUGO LEON,,,,,,9 a 10:50,2,2201010023,"'2201010023','2201010023','LEO-103','LEO-05',100091,'2022A'),",100091
24,Licenciatura en Enfermería y Obstetricia,LEO05 TECNOLOGIAS DE INFORMACION PARA EL CUIDADO,2,104,1°,Otoño 2022,JORGE ARMANDO OSORIO SANDOVAL ,,,,,,9 a 10:50,2,2201010024,"'2201010024','2201010024','LEO-104','LEO-05',100015,'2022A'),",100015
25,Licenciatura en Enfermería y Obstetricia,LEO05 TECNOLOGIAS DE INFORMACION PARA EL CUIDADO,2,105,1°,Otoño 2022,JORGE ARMANDO OSORIO SANDOVAL ,,,,,,7 a 8:50,2,2201010025,"'2201010025','2201010025','LEO-105','LEO-05',100015,'2022A'),",100015
26,Licenciatura en Enfermería y Obstetricia,LEO06 ESCRITURA EN LA PROFESION ORAL Y ESCRITA,2,101,1°,Otoño 2022,ESTRUCTURA LILIA,,13 a 13:50,,13 a 13:50,,,2,2201010026,"'2201010026','2201010026','LEO-101','LEO-06',100013,'2022A'),",100013
27,Licenciatura en Enfermería y Obstetricia,LEO06 ESCRITURA EN LA PROFESION ORAL Y ESCRITA,2,102,1°,Otoño 2022,FRANCISCO JAVIER ARROYO CRUZ,,12 a 12:50,,12 a 12:50,,,2,2201010027,"'2201010027','2201010027','LEO-102','LEO-06',200110,'2022A'),",200110
28,Licenciatura en Enfermería y Obstetricia,LEO06 ESCRITURA EN LA PROFESION ORAL Y ESCRITA,2,103,1°,Otoño 2022,ESTRUCTURA ELIZABETH,,7 a 7:50,,7 a 7:50,,,2,2201010028,"'2201010028','2201010028','LEO-103','LEO-06',100016,'2022A'),",100016
29,Licenciatura en Enfermería y Obstetricia,LEO06 ESCRITURA EN LA PROFESION ORAL Y ESCRITA,2,104,1°,Otoño 2022,FRANCISCO JAVIER ARROYO CRUZ,,18 a 18:50,,18 a 18:50,,,2,2201010029,"'2201010029','2201010029','LEO-104','LEO-06',200110,'2022A'),",200110
30,Licenciatura en Enfermería y Obstetricia,LEO06 ESCRITURA EN LA PROFESION ORAL Y ESCRITA,2,105,1°,Otoño 2022,FRANCISCO JAVIER ARROYO CRUZ,,17 a 17:50,,17 a 17:50,,,2,2201010030,"'2201010030','2201010030','LEO-105','LEO-06',200110,'2022A'),",200110
31,Licenciatura en Enfermería y Obstetricia,LEO07 BASES DE BIOQUIMICA,3,101,1°,Otoño 2022,MTRA BIANEY ZAMIRA ESPINOZA,13 a 13:50,,13 a 13:50,,13 a 13:50,,3,2201010031,"'2201010031','2201010031','LEO-101','LEO-07',200029,'2022A'),",200029
32,Licenciatura en Enfermería y Obstetricia,LEO07 BASES DE BIOQUIMICA,3,102,1°,Otoño 2022,MTRA BIANEY ZAMIRA ESPINOZA,12 a 12:50,,12 a 12:50,,12 a 12:50,,3,2201010032,"'2201010032','2201010032','LEO-102','LEO-07',200029,'2022A'),",200029
33,Licenciatura en Enfermería y Obstetricia,LEO07 BASES DE BIOQUIMICA,3,103,1°,Otoño 2022,MTRA BIANEY ZAMIRA ESPINOZA,11 a 11:50,,11 a 11:50,,11 a 11:50,,3,2201010033,"'2201010033','2201010033','LEO-103','LEO-07',200029,'2022A'),",200029
34,Licenciatura en Enfermería y Obstetricia,LEO07 BASES DE BIOQUIMICA,3,104,1°,Otoño 2022,MTRA BIANEY ZAMIRA ESPINOZA,18 a 18:50,,18 a 18:50,,18 a 18:50,,3,2201010034,"'2201010034','2201010034','LEO-104','LEO-07',200029,'2022A'),",200029
35,Licenciatura en Enfermería y Obstetricia,LEO07 BASES DE BIOQUIMICA,3,105,1°,Otoño 2022,MTRA BIANEY ZAMIRA ESPINOZA,17 a 17:50,,17 a 17:50,,17 a 17:50,,3,2201010035,"'2201010035','2201010035','LEO-105','LEO-07',200029,'2022A'),",200029
36,Licenciatura en Enfermería y Obstetricia,LEO15 PROPEDEUTICA DE ENFERMERIA III,3,301,3°,Otoño 2022,ESTRUCTURA LILIANA,10 a 10:50,,10 a 10:50,,10 a 10:50 Lab,,3,2201010036,"'2201010036','2201010036','LEO-301','LEO-15',100097,'2022A'),",100097
37,Licenciatura en Enfermería y Obstetricia,LEO15 PROPEDEUTICA DE ENFERMERIA III,3,302,3°,Otoño 2022,MTRO JOSE MANUEL GARCIA PAEZ,11 a 11:50,,11 a 11:50,,11 a 11:50 Lab,,3,2201010037,"'2201010037','2201010037','LEO-302','LEO-15',1,'2022A'),",1
38,Licenciatura en Enfermería y Obstetricia,LEO15 PROPEDEUTICA DE ENFERMERIA III,3,303,3°,Otoño 2022,MIGUEL ANGEL LOZADA LOPEZ,12 a 12:50,,12 a 12:50,,12 a 12:50 Lab,,3,2201010038,"'2201010038','2201010038','LEO-303','LEO-15',200087,'2022A'),",200087
39,Licenciatura en Enfermería y Obstetricia,LEO15 PROPEDEUTICA DE ENFERMERIA III,3,304,3°,Otoño 2022,MIGUEL ANGEL LOZADA LOPEZ,11 a 11:50 Lab,,11 a 11:50,,11 a 11:50,,3,2201010039,"'2201010039','2201010039','LEO-304','LEO-15',200087,'2022A'),",200087
40,Licenciatura en Enfermería y Obstetricia,LEO16 FISIOPATOLOGIA,3,301,3°,Otoño 2022,ALBERTO TOLENTINO FLORES,,,11 a 11:50,,,12 a 13:50,3,2201010040,"'2201010040','2201010040','LEO-301','LEO-16',200093,'2022A'),",200093
41,Licenciatura en Enfermería y Obstetricia,LEO16 FISIOPATOLOGIA,3,302,3°,Otoño 2022,ALBERTO TOLENTINO FLORES,10 a 10:50,,10 a 10:50,,,7 a 7:50,3,2201010041,"'2201010041','2201010041','LEO-302','LEO-16',200093,'2022A'),",200093
42,Licenciatura en Enfermería y Obstetricia,LEO16 FISIOPATOLOGIA,3,303,3°,Otoño 2022,ALBERTO TOLENTINO FLORES,9 a 9:50,,,,,10 a 11:50,3,2201010042,"'2201010042','2201010042','LEO-303','LEO-16',200093,'2022A'),",200093
43,Licenciatura en Enfermería y Obstetricia,LEO16 FISIOPATOLOGIA,3,304,3°,Otoño 2022,ALBERTO TOLENTINO FLORES,8 a 8:50,,,,,8 a 9:50,3,2201010043,"'2201010043','2201010043','LEO-304','LEO-16',200093,'2022A'),",200093
44,Licenciatura en Enfermería y Obstetricia,LEO17 SALUD PUBLICA,3,301,3°,Otoño 2022,MTRO JOSE MANUEL GARCIA PAEZ,12 a 12:50,,12 a 12:50,,12 a 12:50,,3,2201010044,"'2201010044','2201010044','LEO-301','LEO-17',1,'2022A'),",1
45,Licenciatura en Enfermería y Obstetricia,LEO17 SALUD PUBLICA,3,302,3°,Otoño 2022,JUAN ARTURO FLORES REYES,,,,,12 a 12:50,8 a 9:50,3,2201010045,"'2201010045','2201010045','LEO-302','LEO-17',1,'2022A'),",1
46,Licenciatura en Enfermería y Obstetricia,LEO17 SALUD PUBLICA,3,303,3°,Otoño 2022,MTRA MARIA LAURA LUGO LEÓN,,,,,9 a 9:50,11 a 12:50,3,2201010046,"'2201010046','2201010046','LEO-303','LEO-17',100091,'2022A'),",100091
47,Licenciatura en Enfermería y Obstetricia,LEO17 SALUD PUBLICA,3,304,3°,Otoño 2022,JUAN ARTURO FLORES REYES,,,,,10 a 10:50,12 a 13:50,3,2201010047,"'2201010047','2201010047','LEO-304','LEO-17',1,'2022A'),",1
48,Licenciatura en Enfermería y Obstetricia,LEO18 SALUD SEXUAL Y REPRODUCTIVA,3,301,3°,Otoño 2022,MAYRA DEYANIRA TOME JAQUIN,,,7 a 7:50 Lab,,,10 a 11:50,3,2201010048,"'2201010048','2201010048','LEO-301','LEO-18',200104,'2022A'),",200104
49,Licenciatura en Enfermería y Obstetricia,LEO18 SALUD SEXUAL Y REPRODUCTIVA,3,302,3°,Otoño 2022,MTRA. ALMA ROSA ALCAIDE LÓPEZ,9 a 9:50,,9 a 9:50,,9 a 9:50 Lab,,3,2201010049,"'2201010049','2201010049','LEO-302','LEO-18',100089,'2022A'),",100089
50,Licenciatura en Enfermería y Obstetricia,LEO18 SALUD SEXUAL Y REPRODUCTIVA,3,303,3°,Otoño 2022,MAYRA DEYANIRA TOME JAQUIN,10 a 10:50,,10 a 10:50,,10 a 10:50 Lab,,3,2201010050,"'2201010050','2201010050','LEO-303','LEO-18',200104,'2022A'),",200104
51,Licenciatura en Enfermería y Obstetricia,LEO18 SALUD SEXUAL Y REPRODUCTIVA,3,304,3°,Otoño 2022,ESTRUCTURA ELIZABETH,10 a 10:50,,10 a 10:50 Lab,,9 a 9:50,,3,2201010051,"'2201010051','2201010051','LEO-304','LEO-18',100016,'2022A'),",100016
52,Licenciatura en Enfermería y Obstetricia,LEO19 FARMACOLOGIA PARA ENFERMERIA,3,301,3°,Otoño 2022,DRA. PATRICIA ESMERALDA MARTÍNEZ HERNÁNDEZ,8 a 8:50,,8 a 8:50,,8 a 8:50,,3,2201010052,"'2201010052','2201010052','LEO-301','LEO-19',200027,'2022A'),",200027
53,Licenciatura en Enfermería y Obstetricia,LEO19 FARMACOLOGIA PARA ENFERMERIA,3,302,3°,Otoño 2022,DRA. PATRICIA ESMERALDA MARTÍNEZ HERNÁNDEZ,7 a 7:50,,7 a 7:50,,7 a 7:50,,3,2201010053,"'2201010053','2201010053','LEO-302','LEO-19',200027,'2022A'),",200027
54,Licenciatura en Enfermería y Obstetricia,LEO19 FARMACOLOGIA PARA ENFERMERIA,3,303,3°,Otoño 2022,DRA. PATRICIA ESMERALDA MARTÍNEZ HERNÁNDEZ,11 a 11:50,,11 a 11:50,,11 a 11:50,,3,2201010054,"'2201010054','2201010054','LEO-303','LEO-19',200027,'2022A'),",200027
55,Licenciatura en Enfermería y Obstetricia,LEO19 FARMACOLOGIA PARA ENFERMERIA,3,304,3°,Otoño 2022,DRA. PATRICIA ESMERALDA MARTÍNEZ HERNÁNDEZ,12 a 12:50,,12 a 12:50,,12 a 12:50,,3,2201010055,"'2201010055','2201010055','LEO-304','LEO-19',200027,'2022A'),",200027
56,Licenciatura en Enfermería y Obstetricia,LEO20 ATENCION PRIMARIA EN EL NIÑO Y ADOLESCENTE,3,301,3°,Otoño 2022,ESTRUCTURA MARIA ELENA,9 a 9:50 Lab,,9 a 9:50,,9 a 9:50,,3,2201010056,"'2201010056','2201010056','LEO-301','LEO-20',100012,'2022A'),",100012
57,Licenciatura en Enfermería y Obstetricia,LEO20 ATENCION PRIMARIA EN EL NIÑO Y ADOLESCENTE,3,302,3°,Otoño 2022,ESTRUCTURA MARISOL,8 a 8:50,,8 a 8:50,,8 a 8:50 Lab,,3,2201010057,"'2201010057','2201010057','LEO-302','LEO-20',100006,'2022A'),",100006
58,Licenciatura en Enfermería y Obstetricia,LEO20 ATENCION PRIMARIA EN EL NIÑO Y ADOLESCENTE,3,303,3°,Otoño 2022,ESTRUCTURA MARISOL,7 a 7:50,,7 a 7:50,,7 a 7:50 Lab,,3,2201010058,"'2201010058','2201010058','LEO-303','LEO-20',100006,'2022A'),",100006
59,Licenciatura en Enfermería y Obstetricia,LEO20 ATENCION PRIMARIA EN EL NIÑO Y ADOLESCENTE,3,304,3°,Otoño 2022,MTRA ALMA ROSA ALCAIDE LÓPEZ,,,7 a 7:50 Lab,,,10 a 11:50,3,2201010059,"'2201010059','2201010059','LEO-304','LEO-20',100089,'2022A'),",100089
60,Licenciatura en Enfermería y Obstetricia,LEO21 PRACTICA CLINICA II,25,301,3°,Otoño 2022,LIC. ENF. IRENE BERNARDINO TOXQUI,14 a 19,14 a 19,14 a 19,14 a 19,14 a 19,14 a 19,25,2201010060,"'2201010060','2201010060','LEO-301','LEO-21',1,'2022A'),",1
61,Licenciatura en Enfermería y Obstetricia,LEO21 PRACTICA CLINICA II,25,302,3°,Otoño 2022,MTRA. NANCY JUDITH GALVÁN MARTÍNEZ,14 a 19,14 a 19,14 a 19,14 a 19,14 a 19,14 a 19,25,2201010061,"'2201010061','2201010061','LEO-302','LEO-21',1,'2022A'),",1
62,Licenciatura en Enfermería y Obstetricia,LEO21 PRACTICA CLINICA II,25,303,3°,Otoño 2022,LIC. ENF. YOLANDA DURAN RIVERA,14 a 19,14 a 19,14 a 19,14 a 19,14 a 19,14 a 19,25,2201010062,"'2201010062','2201010062','LEO-303','LEO-21',1,'2022A'),",1
63,Licenciatura en Enfermería y Obstetricia,LEO21 PRACTICA CLINICA II,25,304,3°,Otoño 2022,MTRA. MARINE SANCHEZ GARFIAS,14 a 19,14 a 19,14 a 19,14 a 19,14 a 19,14 a 19,25,2201010063,"'2201010063','2201010063','LEO-304','LEO-21',1,'2022A'),",1
64,Licenciatura en Enfermería y Obstetricia,LEO29 ATENCION PRIMARIA PARA EL ADULTO MAYOR,3,501,5°,Otoño 2022,MTRA. MARIA LAURA LUGO EÓN,14 a 14:50,,14 a 14:50,,14 a 14:50 Lab,,3,2201010064,"'2201010064','2201010064','LEO-501','LEO-29',100091,'2022A'),",100091
65,Licenciatura en Enfermería y Obstetricia,LEO29 ATENCION PRIMARIA PARA EL ADULTO MAYOR,3,502,5°,Otoño 2022,MTRA. ALMA ROSA ALCAIDE LÓPEZ,15 a 15:50,,15 a 15:50 Lab,,15 a 15:50,,3,2201010065,"'2201010065','2201010065','LEO-502','LEO-29',100089,'2022A'),",100089
66,Licenciatura en Enfermería y Obstetricia,LEO29 ATENCION PRIMARIA PARA EL ADULTO MAYOR,3,503,5°,Otoño 2022,MTRO JOSE MANUEL GARCIA PAEZ,15 a 15:50 Lab,,15 a 15:50,,15 a 15:50,,3,2201010066,"'2201010066','2201010066','LEO-503','LEO-29',1,'2022A'),",1
68,Licenciatura en Enfermería y Obstetricia,LEO30 SALUD MENTAL,3,501,5°,Otoño 2022,JOSE BULMARO PEREZ JUAREZ,16 a 16:50,,16 a 16:50,,16 a 16:50,,3,2201010067,"'2201010067','2201010067','LEO-501','LEO-30',200106,'2022A'),",200106
69,Licenciatura en Enfermería y Obstetricia,LEO30 SALUD MENTAL,3,502,5°,Otoño 2022,JOSE BULMARO PEREZ JUAREZ,18 a 18:50,,18 a 18:50,,18 a 18:50,,3,2201010068,"'2201010068','2201010068','LEO-502','LEO-30',200106,'2022A'),",200106
70,Licenciatura en Enfermería y Obstetricia,LEO30 SALUD MENTAL,3,503,5°,Otoño 2022,JOSE BULMARO PEREZ JUAREZ,17 a 17:50,,17 a 17:50,,17 a 17:50,,3,2201010069,"'2201010069','2201010069','LEO-503','LEO-30',200106,'2022A'),",200106
71,Licenciatura en Enfermería y Obstetricia,LEO31 GINECO OBSTETRICIA I,3,501,5°,Otoño 2022,DR VICTOR MANUEL HERNANDEZ HERNANDEZ,,,,,,7 a 9:50,3,2201010070,"'2201010070','2201010070','LEO-501','LEO-31',200058,'2022A'),",200058
72,Licenciatura en Enfermería y Obstetricia,LEO31 GINECO OBSTETRICIA I,3,502,5°,Otoño 2022,DR VICTOR MANUEL HERNANDEZ HERNANDEZ,,,,,,10 a 12:50,3,2201010071,"'2201010071','2201010071','LEO-502','LEO-31',200058,'2022A'),",200058
73,Licenciatura en Enfermería y Obstetricia,LEO31 GINECO OBSTETRICIA I,3,503,5°,Otoño 2022,DR VICTOR MANUEL HERNANDEZ HERNANDEZ,,,,,,13 a 15:50,3,2201010072,"'2201010072','2201010072','LEO-503','LEO-31',200058,'2022A'),",200058
74,Licenciatura en Enfermería y Obstetricia,LEO32 ENFERMERIA Y GINECO OBSTETRICIA,3,501,5°,Otoño 2022,MTRO JOSE MANUEL GARCIA PAEZ,17 a 17:50 lab,,17 a 17:50 ,,17 a 17:50 ,,3,2201010073,"'2201010073','2201010073','LEO-501','LEO-32',1,'2022A'),",1
75,Licenciatura en Enfermería y Obstetricia,LEO32 ENFERMERIA Y GINECO OBSTETRICIA,3,502,5°,Otoño 2022,MTRA. MARIA LAURA LUGO LEÓN,,16 a 16:50,,16 a 17:50 Lab,,,3,2201010074,"'2201010074','2201010074','LEO-502','LEO-32',100091,'2022A'),",100091
76,Licenciatura en Enfermería y Obstetricia,LEO32 ENFERMERIA Y GINECO OBSTETRICIA,3,503,5°,Otoño 2022,ESTRUCTURA LILIANA,18 a 18:50,,18 a 18:50 lab,,18 a 18:50,,3,2201010075,"'2201010075','2201010075','LEO-503','LEO-32',100097,'2022A'),",100097
77,Licenciatura en Enfermería y Obstetricia,LEO33 EPIDEMIOLOGIA Y ESTADISTICA,3,501,5°,Otoño 2022,CARLOS ANTONIO ARMELLA MEDRANO,,17 a 17:50,18 a 18.50,17 a 17:50,,,3,2201010076,"'2201010076','2201010076','LEO-501','LEO-33',200091,'2022A'),",200091
78,Licenciatura en Enfermería y Obstetricia,LEO33 EPIDEMIOLOGIA Y ESTADISTICA,3,502,5°,Otoño 2022,CARLOS ANTONIO ARMELLA MEDRANO,,15 a 15:50,17 a 17:50,15 a 15:50,,,3,2201010077,"'2201010077','2201010077','LEO-502','LEO-33',200091,'2022A'),",200091
79,Licenciatura en Enfermería y Obstetricia,LEO33 EPIDEMIOLOGIA Y ESTADISTICA,3,503,5°,Otoño 2022,ESTRUCTURA JOSE LUIS,,14 a 14:50,14 a 14:50,14 a 14:50,,,3,2201010078,"'2201010078','2201010078','LEO-503','LEO-33',100011,'2022A'),",100011
80,Licenciatura en Enfermería y Obstetricia,LEO34 LENGUA EXTRANJERA INTERMEDIA,3,501,5°,Otoño 2022,DR. ROBERTO OCHOA GUTIÉRREZ,15 a 15:50,15 a 15:50,,15 a 15:50,,,3,2201010079,"'2201010079','2201010079','LEO-501','LEO-34',200061,'2022A'),",200061
81,Licenciatura en Enfermería y Obstetricia,LEO34 LENGUA EXTRANJERA INTERMEDIA,3,502,5°,Otoño 2022,DR. ROBERTO OCHOA GUTIÉRREZ,17 a 17:50,14 a 14:50,,14 a !4:50,,,3,2201010080,"'2201010080','2201010080','LEO-502','LEO-34',200061,'2022A'),",200061
82,Licenciatura en Enfermería y Obstetricia,LEO34 LENGUA EXTRANJERA INTERMEDIA,3,503,5°,Otoño 2022,DR. ROBERTO OCHOA GUTIÉRREZ,16 a 16:50,16 a 16:50,,16 a 16:50,,,3,2201010081,"'2201010081','2201010081','LEO-503','LEO-34',200061,'2022A'),",200061
83,Licenciatura en Enfermería y Obstetricia,LEO35 PRACTICA CLINICA IV,25,501,5°,Otoño 2022,LIC. ESP. VANESSA RODRIGUEZ PEREZ,8 a 13,8 a 13,8 a 13,8 a 13,8 a 13,8 a 13,25,2201010082,"'2201010082','2201010082','LEO-501','LEO-35',1,'2022A'),",1
84,Licenciatura en Enfermería y Obstetricia,LEO35 PRACTICA CLINICA IV,25,502,5°,Otoño 2022,GISELA CABAÑAS BENITEZ,8 a 13,8 a 13,8 a 13,8 a 13,8 a 13,8 a 13,25,2201010083,"'2201010083','2201010083','LEO-502','LEO-35',200090,'2022A'),",200090
85,Licenciatura en Enfermería y Obstetricia,LEO35 PRACTICA CLINICA IV,25,503,5°,Otoño 2022,NAC-SATE RAMIREZ SANCHEZ,8 a 13,8 a 13,8 a 13,8 a 13,8 a 13,8 a 13,25,2201010084,"'2201010084','2201010084','LEO-503','LEO-35',200088,'2022A'),",200088
