﻿ID,Sección
200200091,MED-501
200200118,MED-502
200200179,MED-503
200200219,MED-504
200200258,MED-505
200200293,MED-506
200200496,MED-501
200200549,MED-501
200200607,MED-502
200200979,MED-503
200201089,MED-504
200201119,MED-505
200201132,MED-506
200201328,MED-502
200201378,MED-501
200201409,MED-502
200201470,MED-503
200210012,MED-504
200210022,MED-505
200210148,MED-506
200210153,MED-503
200210223,MED-501
200210252,MED-502
200210268,MED-503
200210276,MED-504
200210295,MED-505
200210312,MED-506
200210415,MED-504
200210513,MED-501
200210521,MED-502
200210725,MED-503
200210727,MED-504
200211064,MED-505
200211098,MED-506
200211118,MED-505
200211143,MED-501
200211155,MED-502
200211246,MED-503
200211358,MED-504
200211381,MED-505
200211401,MED-506
200211413,MED-506
200211458,MED-501
200211469,MED-502
200220048,MED-503
200220139,MED-504
200220231,MED-505
200220288,MED-506
200220377,MED-501
200220383,MED-501
200220438,MED-502
200220590,MED-503
200220690,MED-504
200220739,MED-505
200220771,MED-506
200220835,MED-502
200220961,MED-501
200220962,MED-502
200220984,MED-503
200221165,MED-504
200221194,MED-505
200221296,MED-506
200221325,MED-503
200221410,MED-501
200221448,MED-502
200230067,MED-503
200230124,MED-504
200230159,MED-505
200230183,MED-506
200230195,MED-504
200230217,MED-501
200230222,MED-502
200230368,MED-503
200230432,MED-504
200230444,MED-505
200230493,MED-506
200230546,MED-505
200230579,MED-501
200230595,MED-502
200230622,MED-503
200230666,MED-504
200230751,MED-505
200230763,MED-506
200230851,MED-506
200230874,MED-501
200231068,MED-502
200250730,MED-503
200231121,MED-504
200231150,MED-505
200231214,MED-506
200231383,MED-501
200231390,MED-501
200240020,MED-502
200240075,MED-503
200240173,MED-504
200240349,MED-505
200240449,MED-506
200240519,MED-502
200240530,MED-501
200240648,MED-502
200240695,MED-503
200240728,MED-504
200240795,MED-505
200240814,MED-506
200240823,MED-503
200240884,MED-501
200241134,MED-502
200241158,MED-503
200241261,MED-504
200241318,MED-505
200250121,MED-506
200250143,MED-504
200250149,MED-501
200250253,MED-502
200250266,MED-503
200250275,MED-504
200250298,MED-505
200250327,MED-506
200250338,MED-505
200250385,MED-501
200250396,MED-502
200250441,MED-503
200250454,MED-504
200250509,MED-505
200250597,MED-506
200250634,MED-506
200250742,MED-501
200250854,MED-502
200250857,MED-503
200250982,MED-504
200251053,MED-505
200251127,MED-506
200251269,MED-501
200251283,MED-501
200251291,MED-502
200251432,MED-503
200251465,MED-504
200260105,MED-505
200260191,MED-506
200260401,MED-502
200260403,MED-501
200260427,MED-502
200260453,MED-503
200260571,MED-504
200260593,MED-505
200260639,MED-506
200260642,MED-503
200260683,MED-501
200260723,MED-502
200260858,MED-503
200260865,MED-504
200260940,MED-505
200260942,MED-506
200260987,MED-504
200260989,MED-501
200261015,MED-502
200261090,MED-503
200261371,MED-504
200261389,MED-505
200270063,MED-506
200270066,MED-505
200270087,MED-501
200270204,MED-502
200270226,MED-503
200270256,MED-504
200270561,MED-505
200241272,MED-506
200270656,MED-506
200270671,MED-501
200270688,MED-502
200270692,MED-503
200270698,MED-504
200270711,MED-505
200270783,MED-506
200270809,MED-501
200270819,MED-501
200270894,MED-502
200271046,MED-503
200271164,MED-504
200271191,MED-502
200271202,MED-506
200271204,MED-502
200271327,MED-501
200271379,MED-502
200280095,MED-503
200280130,MED-504
200280208,MED-505
200280296,MED-506
200280422,MED-503
200280659,MED-501
200280787,MED-502
200280856,MED-503
200280860,MED-504
200280935,MED-505
200280997,MED-506
200281008,MED-504
200281133,MED-501
200281147,MED-502
200281258,MED-503
